[
	{
		"name": "Patreon",
		"@id": "{BASE_URL}donation_methods/patreon",
		"url": "https://www.patreon.com/davidrevoy",
		"proprietary": true
	},
	{
		"name": "Liberapay",
		"@id": "{BASE_URL}donation_methods/liberapay",
		"url": "https://liberapay.com/davidrevoy/",
		"proprietary": false
	},
	{
		"name": "Tipeee",
		"@id": "{BASE_URL}donation_methods/tipeee",
		"url": "https://www.tipeee.com/pepper-carrot",
		"proprietary": true
	},
	{
		"name": "PayPal",
		"@id": "{BASE_URL}donation_methods/paypal",
		"url": "https://paypal.me/davidrevoy",
		"proprietary": true
	},
	{
		"name": "Ğ1",
		"@id": "{BASE_URL}donation_methods/g1",
		"url": "https://g1.duniter.fr/#/app/wot/4nosBEwT8xQfMY11sq32AnZF1XcoqzG9tArXJq9mu8Wc/DavidRevoy",
		"proprietary": false
	},
	{
		"name": "bank transfer",
		"@id": "{BASE_URL}donation_methods/banktransfer",
		"url": "https://www.peppercarrot.com/en/static12/iban-and-mail-adress",
		"proprietary": false
	},
	{
		"name": "mail",
		"@id": "{BASE_URL}donation_methods/mail",
		"url": "https://www.peppercarrot.com/en/static12/iban-and-mail-adress",
		"proprietary": false
	}
]
