[
	{
		"@id": "{BASE_URL}languages/ar",
		"name": "Arabic",
		"local_name": "العربية",
		"iso_code": "ar",
		"iso_version": 1
	},
	{
		"@id": "{BASE_URL}languages/bn",
		"name": "Bengali",
		"local_name": "বাংলা",
		"iso_code": "bn",
		"iso_version": 1
	},
	{
		"@id": "{BASE_URL}languages/br",
		"name": "Breton",
		"local_name": "Brezhoneg",
		"iso_code": "br",
		"iso_version": 1
	},
	{
		"@id": "{BASE_URL}languages/ca",
		"name": "Catalan",
		"local_name": "Català",
		"iso_code": "ca",
		"iso_version": 1
	},
	{
		"@id": "{BASE_URL}languages/cn",
		"name": "Chinese",
		"local_name": "中文",
		"iso_code": "zh",
		"iso_version": 1
	},
	{
		"@id": "{BASE_URL}languages/cs",
		"name": "Czech",
		"local_name": "Čeština",
		"iso_code": "cs",
		"iso_version": 1
	},
	{
		"@id": "{BASE_URL}languages/da",
		"name": "Danish",
		"local_name": "Dansk",
		"iso_code": "da",
		"iso_version": 1
	},
	{
		"@id": "{BASE_URL}languages/de",
		"name": "German",
		"local_name": "Deutsch",
		"iso_code": "de",
		"iso_version": 1
	},
	{
		"@id": "{BASE_URL}languages/el",
		"name": "Greek",
		"local_name": "Ελληνικά",
		"iso_code": "el",
		"iso_version": 1
	},
	{
		"@id": "{BASE_URL}languages/en",
		"name": "English",
		"local_name": "English",
		"iso_code": "en",
		"iso_version": 1
	},
	{
		"@id": "{BASE_URL}languages/eo",
		"name": "Esperanto",
		"local_name": "Esperanto",
		"iso_code": "eo",
		"iso_version": 1
	},
	{
		"@id": "{BASE_URL}languages/es",
		"name": "Spanish",
		"local_name": "Español",
		"iso_code": "es",
		"iso_version": 1
	},
	{
		"@id": "{BASE_URL}languages/fa",
		"name": "Persian",
		"local_name": "فارسی",
		"iso_code": "fa",
		"iso_version": 1
	},
	{
		"@id": "{BASE_URL}languages/fr",
		"name": "French",
		"local_name": "Français",
		"iso_code": "fr",
		"iso_version": 1
	},
	{
		"@id": "{BASE_URL}languages/fi",
		"name": "Finnish",
		"local_name": "Suomi",
		"iso_code": "fi",
		"iso_version": 1
	},
	{
		"@id": "{BASE_URL}languages/hu",
		"name": "Hungarian",
		"local_name": "Magyar",
		"iso_code": "hu",
		"iso_version": 1
	},
	{
		"@id": "{BASE_URL}languages/id",
		"name": "Indonesian",
		"local_name": "Bahasa Indonesia",
		"iso_code": "id",
		"iso_version": 1
	},
	{
		"@id": "{BASE_URL}languages/io",
		"name": "Ido",
		"local_name": "Ido",
		"iso_code": "io",
		"iso_version": 1
	},
	{
		"@id": "{BASE_URL}languages/it",
		"name": "Italian",
		"local_name": "Italiano",
		"iso_code": "it",
		"iso_version": 1
	},
	{
		"@id": "{BASE_URL}languages/ja",
		"name": "Japanese",
		"local_name": "日本語",
		"iso_code": "ja",
		"iso_version": 1
	},
	{
		"@id": "{BASE_URL}languages/kr",
		"name": "Korean",
		"local_name": "한국어",
		"iso_code": "ko",
		"iso_version": 1
	},
	{
		"@id": "{BASE_URL}languages/la",
		"name": "Latin",
		"local_name": "Latina",
		"iso_code": "la",
		"iso_version": 1
	},
	{
		"@id": "{BASE_URL}languages/ml",
		"name": "Malayalam",
		"local_name": "മലയാളം",
		"iso_code": "ml",
		"iso_version": 1
	},
	{
		"@id": "{BASE_URL}languages/ms",
		"name": "Malay",
		"local_name": "Bahasa Melayu",
		"iso_code": "ms",
		"iso_version": 1
	},
	{
		"@id": "{BASE_URL}languages/mx",
		"name": "Mexican Spanish",
		"local_name": "Español mexicano",
		"iso_code": "es",
		"iso_locale": "MX",
		"iso_version": 1
	},
	{
		"@id": "{BASE_URL}languages/nl",
		"name": "Dutch",
		"local_name": "Nederlands",
		"iso_code": "nl",
		"iso_version": 1
	},
	{
		"@id": "{BASE_URL}languages/no",
		"name": "Norwegian Bokmål",
		"local_name": "Norsk (bokmål)",
		"iso_code": "nb",
		"iso_version": 1
	},
	{
		"@id": "{BASE_URL}languages/pl",
		"name": "Polish",
		"local_name": "Polski",
		"iso_code": "pl",
		"iso_version": 1
	},
	{
		"@id": "{BASE_URL}languages/pt",
		"name": "Portuguese",
		"local_name": "Português",
		"iso_code": "pt",
		"iso_version": 1
	},
	{
		"@id": "{BASE_URL}languages/ro",
		"name": "Romanian",
		"local_name": "Română",
		"iso_code": "ro",
		"iso_version": 1
	},
	{
		"@id": "{BASE_URL}languages/ru",
		"name": "Russian",
		"local_name": "Русский",
		"iso_code": "ru",
		"iso_version": 1
	},
	{
		"@id": "{BASE_URL}languages/si",
		"name": "Sinhalese",
		"local_name": "සිංහල",
		"iso_code": "si",
		"iso_version": 1
	},
	{
		"@id": "{BASE_URL}languages/sk",
		"name": "Slovak",
		"local_name": "Slovenčina",
		"iso_code": "sk",
		"iso_version": 1
	},
	{
		"@id": "{BASE_URL}languages/sr",
		"name": "Serbian",
		"local_name": "Српски",
		"iso_code": "sr",
		"iso_version": 1
	},
	{
		"@id": "{BASE_URL}languages/sv",
		"name": "Swedish",
		"local_name": "Svenska",
		"iso_code": "sv",
		"iso_version": 1
	},
	{
		"@id": "{BASE_URL}languages/uk",
		"name": "Ukrainian",
		"local_name": "Українська",
		"iso_code": "uk",
		"iso_version": 1
	},
	{
		"@id": "{BASE_URL}languages/vi",
		"name": "Vietnamese",
		"local_name": "Tiếng Việt",
		"iso_code": "vi",
		"iso_version": 1
	},
	{
		"@id": "{BASE_URL}languages/jb",
		"name": "Lojban",
		"local_name": "Lojban",
		"iso_code": "jbo",
		"iso_version": 2
	},
	{
		"@id": "{BASE_URL}languages/ns",
		"name": "Low German",
		"local_name": "Plattdüütsch",
		"iso_code": "nds",
		"iso_version": 2
	},
	{
		"@id": "{BASE_URL}languages/ph",
		"name": "Filipino",
		"local_name": "Filipino",
		"iso_code": "fil",
		"iso_version": 2
	},
	{
		"@id": "{BASE_URL}languages/kt",
		"name": "Kotava",
		"local_name": "Kotava",
		"iso_code": "avk",
		"iso_version": 3
	},
	{
		"@id": "{BASE_URL}languages/sz",
		"name": "Silesian",
		"local_name": "Ślůnski",
		"iso_code": "szl",
		"iso_version": 3
	},
	{
		"@id": "{BASE_URL}languages/go",
		"name": "Gallo",
		"local_name": "Galo",
		"iso_code": "",
		"iso_version": -1
	}
]
