[
	{
		"name": "Alex Gryson",
		"@id": "{BASE_URL}people/alexgryson",
		"real_name": "Alexander Gryson",
		"nickname": "agryson",
		"description": "original French to English translator",
		"country": "FR",
		"framagit": "https://framagit.org/agryson"
	},
	{
		"name": "Alexandre E. Almeida",
		"@id": "{BASE_URL}people/alexandreealmeida",
		"real_name": "Alexandre E. Almeida",
		"nickname": "almeidaxan",
		"description": "Portuguese translator",
		"framagit": "https://framagit.org/almeidaxan"
	},
	{
		"name": "Arild Torvund Olsen",
		"@id": "{BASE_URL}people/arildtorvundolsen",
		"real_name": "Arild Torvund Olsen",
		"description": "Nynorsk translator",
		"framagit": "https://framagit.org/arildtorvundolsen"
	},
	{
		"name": "Amyspark",
		"@id": "{BASE_URL}people/amyspark",
		"nickname": "Amyspark",
		"country": "AR",
		"url": "https://www.amyspark.me/",
		"framagit": "https://framagit.org/amyspark"
	},
	{
		"name": "Bhoren",
		"@id": "{BASE_URL}people/bhoren",
		"nickname": "Bhoren",
		"freenode": "Bhoren"
	},
	{
		"name": "Butterfly",
		"@id": "{BASE_URL}people/butterfly",
		"nickname": "Butterfly",
		"country": "BE",
		"freenode": "Butterfly^"
	},
	{
		"name": "CGand",
		"@id": "{BASE_URL}people/cgand",
		"real_name": "Carlo Gandolfi",
		"nickname": "CGand",
		"description": "Italian translator",
		"framagit": "https://framagit.org/cgand"
	},
	{
		"name": "CalimeroTeknik",
		"@id": "{BASE_URL}people/calimeroteknik",
		"nickname": [
			"CalimeroTeknik",
			"ctk"
		],
		"description": "developer, French corrector",
		"country": "FR",
		"url": "http://calimeroteknik.free.fr/",
		"framagit": "https://framagit.org/calimeroteknik",
		"freenode": "CalimeroTeknik"
	},
	{
		"name": "Craig Maloney",
		"@id": "{BASE_URL}people/cmaloney",
		"real_name": "Craig Maloney",
		"nickname": [
			"cmaloney",
			"craigmaloney"
		],
		"country": "US",
		"url": "http://decafbad.net/",
		"framagit": "https://framagit.org/craigmaloney",
		"freenode": "cmaloney",
		"wikidata": "Q47012503"
	},
	{
		"name": "David Revoy",
		"@id": "{BASE_URL}people/davidrevoy",
		"real_name": "David Revoy",
		"nickname": "Deevad",
		"description": "founder of Pepper&Carrot, author of all the artwork",
		"country": "FR",
		"url": "https://davidrevoy.com/",
		"framagit": "https://framagit.org/Deevad",
		"freenode": "deevad",
		"wikidata": "Q20036576"
	},
	{
		"name": "Gleki",
		"@id": "{BASE_URL}people/gleki",
		"nickname": [
			"Gleki",
			"la gleki",
			"Gleki Arxokuna"
		],
		"description": "Lojban and Russian translator",
		"framagit": "https://framagit.org/lagleki",
		"freenode": "gleki"
	},
	{
		"name": "Hali",
		"@id": "{BASE_URL}people/hali"
	},
	{
		"name": "Hồ Nhựt Châu",
		"@id": "{BASE_URL}people/honhutchau",
		"real_name": "Hồ Nhựt Châu",
		"nickname": "Navi",
		"framagit": "https://framagit.org/Navi"
	},
	{
		"name": "Imsesaok",
		"@id": "{BASE_URL}people/imsesaok",
		"nickname": [
			"Oliver Lee",
			"Imsesaok",
			"qtwyeuritoiy"
		],
		"description": "Korean translator",
		"country": "KR",
		"framagit": "https://framagit.org/imsesaok",
		"freenode": "qtwyeuritoiy"
	},
	{
		"name": "Inkscape team",
		"@id": "{BASE_URL}people/inkscapeteam",
		"description": "developers of Inkscape",
		"url": "https://inkscape.org/",
		"freenode": "#inkscape-devel"
	},
	{
		"name": "Jookia",
		"@id": "{BASE_URL}people/jookia",
		"nickname": "Jookia",
		"framagit": "https://framagit.org/Jookia"
	},
	{
		"name": "Kateřina Fleknová",
		"@id": "{BASE_URL}people/katerinfleknova",
		"description": "Czech translator",
		"framagit": "https://framagit.org/Alcean"
	},
	{
		"name": "Juan José Segura",
		"@id": "{BASE_URL}people/juanjosesegura",
		"real_name": "Juan José Segura",
		"description": "Catalan translator"
	},
	{
		"name": "Martin Disch",
		"@id": "{BASE_URL}people/martindisch",
		"real_name": "Martin Disch",
		"description": "English proofreader",
		"framagit": "https://framagit.org/martindisch"
	},
	{
		"name": "Mc",
		"@id": "{BASE_URL}people/mc",
		"nickname": "Mc",
		"description": "Inkscape developer",
		"freenode": "Mc"
	},
	{
		"name": "Midgard",
		"@id": "{BASE_URL}people/midgard",
		"nickname": "Midgard",
		"description": "Git guru, developer, Dutch translator",
		"country": "BE",
		"framagit": "https://framagit.org/Midgard",
		"freenode": "M1dgard"
	},
	{
		"name": "Moini",
		"@id": "{BASE_URL}people/moini",
		"nickname": "Moini"
	},
	{
		"name": "Nicolas Artance",
		"@id": "{BASE_URL}people/nartance",
		"real_name": "Nicolas Artance",
		"nickname": "Nartance"
	},
	{
		"name": "Quiralta",
		"@id": "{BASE_URL}people/quiralta",
		"real_name": "R.J. Quiralta",
		"nickname": "Quiralta",
		"framagit": "https://framagit.org/RJQuiralta",
		"freenode": "quiralta"
	},
	{
		"name": "Ran Zhuang",
		"@id": "{BASE_URL}people/ranzhuang",
		"real_name": [
			"庄冉",
			"Ran Zhuang"
		],
		"nickname": "femalelion",
		"description": "Chinese translator",
		"framagit": "https://framagit.org/femalelion"
	},
	{
		"name": "Seblediacre",
		"@id": "{BASE_URL}people/seblediacre",
		"nickname": "Seblediacre"
	},
	{
		"name": "Sölve Svartskogen",
		"@id": "{BASE_URL}people/solvesvartskogen",
		"real_name": "Sölve Svartskogen",
		"nickname": "WorkingWarrior",
		"description": "Polish translator",
		"framagit": "https://framagit.org/WorkingWarrior"
	},
	{
		"name": "Talime",
		"@id": "{BASE_URL}people/talime",
		"nickname": "Talime"
	},
	{
		"name": "TheFaico",
		"@id": "{BASE_URL}people/thefaico",
		"real_name": "Juanjo Faico",
		"nickname": "TheFaico",
		"description": "Spanish translator",
		"framagit": "https://framagit.org/TheFaico"
	},
	{
		"name": "uncle Night",
		"@id": "{BASE_URL}people/unclenight",
		"nickname": "uncle Night",
		"description": "Ukrainian and Russian translator",
		"framagit": "https://framagit.org/uncleNight"
	},
	{
		"name": "Valvin",
		"@id": "{BASE_URL}people/valvin",
		"nickname": [
			"Valvin",
			"ValVin"
		],
		"country": "FR",
		"url": "https://blog.valvin.fr/",
		"framagit": "https://framagit.org/valvin",
		"freenode": "valvin"
	},
	{
		"name": "Willem Sonke",
		"@id": "{BASE_URL}people/willemsonke",
		"real_name": "Willem Sonke",
		"description": "Dutch translator",
		"country": "NL",
		"url": "http://wimiso.nl/",
		"framagit": "https://framagit.org/Willem3141",
		"wikidata": "Q47012495"
	},
	{
		"name": "xHire",
		"@id": "{BASE_URL}people/xhire",
		"nickname": "xHire",
		"country": "CZ",
		"framagit": "https://framagit.org/xHire"
	},
	{
		"name": "Zveryok",
		"@id": "{BASE_URL}people/zveryok",
		"nickname": "Zveryok",
		"description": "Ukrainian and Russian translator",
		"country": "UK",
		"url": "https://zveryok.pp.ua/",
		"framagit": "https://framagit.org/Zveryok",
		"freenode": "zveryok[m]"
	}
]
